{
    "orgName": "Foundation Scratch Org",
    "edition": "Enterprise",
    "settings": {
      "orgPreferenceSettings": {
        "s1DesktopEnabled": true,
        "translation": true
      }
    },
    "features": ["CascadeDelete"]
  }